32.0700427272,50.9743480109
34.3245485044,46.2641728137
32.8864427827,48.6950980833
30.5898077758,42.4147083949
33.9227110962,37.1971427798
24.8304983382,44.3235361663
-3.9363980727,52.5349559864
0.6523482894,47.1253561544
31.2353971740,50.8416220522
34.7820162488,47.9836218180
3.1717059256,50.0305017101
0.0168626588,8.0573334377
34.6252776528,44.8913264389
32.5362701584,55.6667782888
38.0329285265,39.9530902466
28.4887395934,47.0306294759
-1.6413275510,43.6210198617
7.5837470168,6.0223080377
27.7276329181,52.4928442207
33.9619227123,42.8563095715
1.1744298252,41.0599881145
36.3088913819,43.6730757320
34.5395748516,43.3347512049
35.2559869933,45.1489213490
4.0292733974,8.3240581138
32.6871086640,47.6071467438
1.1208121158,50.0975339655
32.3449449028,41.8676329291
36.4057280652,47.0301499589
0.8305159737,47.1687583614
30.4692434530,47.1735244643
33.2053430623,46.3575772000
32.5536662876,46.1548308379
8.6890383229,6.4785672788
-2.9044703289,4.3028251404
27.5778432221,47.4544067810
7.3789466806,11.6297342771
4.0626635355,6.0381815504
25.0119743960,38.9648777072
29.0374977823,39.3552002492
8.0179198867,2.3801916373
3.2822365928,-1.3260229950
4.0838709648,3.7488164999
36.0326419004,45.1271186328
1.2985044575,46.5976601186
28.4670670393,49.8850405618
30.5501389712,46.2819383180
3.1976783497,2.9518151891
33.6580784403,42.7082479635
4.6072839600,2.4947017597
31.3159306965,52.7259361497
-1.8421010318,9.7284439200
28.8254143219,42.8057781461
0.5519765199,9.8131205879
2.3734859219,5.4180254273
38.7011509715,47.5051129857
28.1208589099,46.4894703331
30.4839395244,49.2436845829
2.2455308927,51.6314446224
11.6018422353,3.4614221328
32.9430008693,46.9737323399
35.6983230258,44.6328612710
28.4596097190,39.3033347769
5.6060684073,4.3402616475
2.2891128286,10.5731660742
-2.5439464077,41.2813187104
9.0228600511,12.1155382868
-2.4434738127,3.7475454420
32.1685839521,44.2126684454
28.2634439078,46.7638396436
5.1554456208,6.5828098272
3.2572330193,2.9542588779
7.1989525437,5.4401546135
13.0081369761,14.2475633991
33.9494450516,47.0798670644
33.0343525672,43.6277832214
31.9060328571,45.1580353634
4.3359116207,0.5802027770
-4.2456455356,7.7565431869
34.9237811406,40.1024550503
34.3230623994,44.1110067353
37.9573406788,47.7595071082
34.2075232842,47.9937509477
35.8432004139,44.3550888417
11.6561731634,10.0477963260
28.3992322062,46.6058083068
-1.0871511305,49.4331657684
5.1305596309,3.0354648275
33.4544923684,45.1004374747
34.9101084045,47.3037104500
28.1518497592,41.0157836067
31.7863086070,44.1335040759
32.3682542046,43.0999982981
29.2458791208,43.1089302308
34.7474874923,46.8856751811
-2.5838322084,43.6194048892
26.2774853708,48.4888395475
28.5053099502,45.7177852800
25.5872997780,43.1011074157
28.7710273196,47.7969260271
6.6975807699,1.2057786390
34.5302035243,49.7948108507
-0.3385278103,47.9006869360
9.7001318641,9.8087076671
8.5423523434,7.4438759407
30.5141989183,46.3602507578
0.9437807799,1.7882503440
31.0650390452,44.0495924929
31.4531342109,44.6438219268
-0.3077777969,5.8875193439
28.6706048319,42.2163505055
35.0124664786,46.4696464095
28.0536703771,42.4578849742
-4.9827430388,45.0349306639
26.6235442934,48.1772338537
5.2898671632,40.2235699379
32.9458455783,46.2401046790
36.1978885381,45.0749923508
33.0854040644,49.3551746440
25.2829262743,45.8806562994
5.5698714126,0.6614689857
32.0782421096,45.6664099037
36.4943882699,47.1676986577
13.2677060613,4.1726726205
31.1894220115,45.3383785285
24.5594169761,49.7497425146
0.9684017397,5.2063561415
31.0056506813,46.3571715384
34.0605535484,50.5535495121
39.7371187933,46.1864743658
32.2849335350,47.5028524658
29.8417084693,46.3158042427
27.9313532166,42.3175704977
28.8619073792,44.6253044315
0.4960077357,46.1668337416
27.8475472616,49.9561717475
29.5716486011,44.5390879483
34.8250424947,43.7409880762
34.9369865998,50.3512525017
-0.2623340864,10.3298441519
9.3828383150,1.2069341213
34.0364997270,53.1037854764
5.3856584291,46.9502834596
1.0179409226,3.5219552548
30.2105124020,47.4433081538
37.1014454054,49.3139910992
22.3211066065,45.3856433940
33.0275445403,45.6604957198
36.0597098320,43.7735591807
-1.5834087801,46.2515720063
32.8772883936,45.8187409266
35.5352848603,40.1392780330
32.0111471652,50.5764410740
28.1586653421,44.0530479812
4.7587911130,7.4175439535
8.8745061066,6.2812365430
33.7488358235,42.2697523661
37.0469619180,49.4349909770
1.7786420155,7.7585257955
30.9055314125,44.3760384022
1.1771413483,1.0160312263
4.4471291024,8.2694418805
4.4379869970,5.8526803171
35.3256032708,43.4939466053
0.9585640843,49.0766013069
1.4017607229,7.4819739105
34.4187376331,46.0718795163
3.0188440638,5.2721149002
3.3500588399,44.5875100035
3.0998748324,2.4467243878
9.6161707633,10.1806741570
6.8563230386,5.1492215126
2.5956496357,6.6376465721
32.9214298581,46.1165977179
32.9422045371,45.9368194877
34.5522719939,42.4323305319
26.0899441341,41.6239682065
2.2492982487,1.9747874976
0.8817084395,13.5302732366
31.3856720022,45.6372986069
7.5775718419,7.0699920698
32.4395458585,48.1395183263
2.8188463981,46.1422828243
34.8382692419,42.3911862604
27.1202464777,41.3447464745
5.1281583697,3.9514069378
31.0248921331,41.5018767577
33.0441160569,40.8407160139
29.3658734905,45.0397503375
31.5809802714,46.5553326192
31.2648842241,48.5361143660
2.1182811996,46.3555195730
7.2179078877,4.0448666865
30.4188980703,48.1023165702
31.3779128539,46.0665362582
2.7479891635,7.8787225290
7.5770165203,16.5824292725
0.8433548013,6.8292138036
6.9466865244,-0.6108696616
38.4000919999,44.3316581614
2.5771401488,45.3663605280
28.0158105817,45.8738391156
30.2327707737,43.3658883299
39.7929111506,46.6279906500
34.5339563226,44.0152225982
30.0444629207,40.3069487969
11.9603773484,45.6211744523
8.5291657228,12.1959555872
33.0510766411,44.9282980357
7.7659964121,16.0545318831
1.1356705250,51.3254871199
8.5958634071,7.5732992961
10.4659179891,8.0469651670
36.6049451633,45.2796150043
4.3420185778,8.8190851758
-0.4738176812,47.4412718631
34.7991208827,43.2492964966
36.8673842869,41.5273919767
3.3290279875,0.0597164477
31.5420187869,43.8256690056
31.1947511642,44.2851257923
8.2623781792,57.6782928843
5.0714877868,5.1606519713
35.8089110743,41.2528188743
5.8415708548,6.6260233836
33.2277702339,45.9314965833
-1.6198426328,49.5985304119
28.6871097041,49.8300032740
0.3567456637,45.2687736185
43.0983521729,45.1159634674
34.3591570861,49.7592680864
1.3790417824,-0.5207280567
33.1261029692,45.2773444482
25.9401174099,41.5490743724
29.9667914270,42.7456570753
31.2057987649,45.5318752997
32.0228085134,49.5077407264
6.9375835366,46.8907419149
33.3129889584,48.7787937055
2.3807730192,46.0540027771
1.5974172329,6.8700958685
9.3627427033,9.5545726741
34.2854996660,48.8493951807
30.0916591285,38.8527181224
7.8924935508,11.1710486868
33.7117749064,44.9892971233
31.3355369902,45.5471742581
1.6978180784,42.6206130435
35.1545864420,41.6401049594
29.8083420249,49.8176608499
6.4064261974,49.9695002675
28.7812485559,50.2329645320
33.5992370988,43.8175206384
31.0189485767,49.0982390835
33.5683167429,53.4149511134
31.6461204484,47.6965467461
29.2329645607,50.7197223867
3.1908567194,5.1473439027
7.2041571867,54.2323260313
37.9353784990,48.2090499008
25.3774667658,43.7602541061
31.6514500209,45.6335959949
4.4711043118,3.4428971990
28.0754788143,49.6153000145
2.1368003991,-0.6765048693
30.1913487940,41.3596503915
35.2634638198,44.6299891208
26.5912870167,50.0110295985
29.2670121371,44.2647782127
4.7707487962,16.7416494172
25.6195876343,39.8699540927
8.9345119520,7.1217685488
6.4835947812,45.3585135324
-6.5166486617,2.6005692120
5.2656847456,47.0535950400
7.2462708513,11.0527870370
8.7530477388,7.7709427008
32.7725542726,41.9508169196
28.0181642040,47.6379574158
3.3560354404,50.2931023803
27.1168029260,39.3839204982
29.9799136595,47.5381920683
1.6403141236,5.0829018784
31.1209953708,44.9881850303
2.0713134777,48.4562436545
29.8569655202,45.3536343400
25.4431595024,50.8376185659
36.1722104221,42.0270756191
31.5303535861,46.0016754927
0.9257232441,44.6873006384
-1.8175869502,6.5362194554
2.1900029334,8.2309294769
0.7137161319,43.5910513074
12.6244367287,11.8877344792
37.9415581065,46.3132954095
-0.6766892721,47.5181164442
30.3359025573,46.7499749337
27.1242447421,54.2104686195
-0.5934207687,5.3086297366
1.2361364189,2.8967024105
30.7806350025,41.8695035889
6.3535122528,2.9840557474
31.1094785065,43.0718422155
2.0658914495,-0.3898213641
35.5512827546,50.5743160921
2.2153781273,8.4953335599
0.1256855057,6.1439190768
-0.6898660767,8.1968076753
2.4851253545,7.2803627657
33.4725667667,46.3148332736
6.4324246779,16.4023418858
2.3175353087,6.8398539522
35.0041145155,44.2628909859
-4.9767643329,4.6270083974
28.9652495097,43.8154443964
11.9421779590,18.1419033368
4.5806802007,3.1321375062
-0.6502270365,50.8628925842
2.1160490019,8.5850965774
2.4442337364,45.4407986675
-0.4795435201,41.3769282918
28.9772909938,41.5987526102
30.4947003469,43.1625027467
31.4986994198,42.9138770189
32.2272430619,40.2439708252
13.3069499283,10.4025009270
33.1493074248,52.9418858236
27.7707301816,42.6003396183
31.8473721925,48.6140975371
2.4186171278,5.6111587625
34.1121159151,45.3242060272
28.9226146160,48.7776197520
31.0510595248,46.0766502446
2.8304562670,6.0129970338
0.8692267996,50.6880794265
1.0911839245,44.0138332264
32.2614359974,47.6864385904
33.4932687787,41.7652880952
29.7133579476,47.0969819708
31.8285276893,50.3265336173
-2.2243739850,47.8731103908
37.6129350344,44.2164955045
30.4016815114,45.4493094203
1.3423668482,53.7290131105
27.7258737737,41.3091230591
36.3238404099,46.0342259683
-0.1682779045,44.8622361143
33.2659377376,44.7381494631
29.6665599327,41.3940588346
8.3119085540,10.0183335895
5.7942213210,46.6251406360
0.6961015067,7.8241474676
28.2050248475,47.6721577360
29.0108190243,46.8244962822
9.9903965394,3.1628312037
4.2316410873,0.9891168194
0.3322052758,2.4678972487
0.1423622097,4.7139156866
33.4436350075,46.2169859495
32.1301245473,47.8650101541
30.1536965798,40.6141809229
30.8959527496,49.5440890675
30.5681390839,44.4347350679
1.0922305690,48.6068645833
30.2529761954,49.3911598219
32.8769159175,45.8854799120
33.0093407603,45.0779294972
30.1197649392,42.9245851286
4.2359971691,6.7881968147
33.6482126855,49.3183008523
29.4818742389,49.7143406370
-0.9810675832,43.4485292516
3.0982598944,9.9763865354
5.6287157503,2.2403102997
31.0784769378,50.1055372313
-1.7246193473,2.9586600959
5.8462236196,12.3020720548
5.4777396687,5.7998807882
28.8628780422,44.5133982988
3.0770762930,5.2759104577
27.4961488010,49.7874847622
29.1566878989,48.4444185450
29.5260212476,45.2902036666
24.3318472085,44.6071673485
6.0864133944,3.9335980181
31.5480108317,47.2513429331
9.9981892301,10.1751030245
30.7194027441,44.7530966337
10.0574185139,7.3185118156
1.2310959393,-1.4449050279
30.2021919455,51.5920218372
3.3521491493,3.5007080718
39.1079864935,50.7476902734
5.0396461078,8.1251823213
32.0844079470,47.8616903052
28.3490897501,43.7624019199
35.3247212578,52.9317445192
39.1332593926,44.9400777645
0.5925425462,5.7998386640
34.9550035323,46.4752615260
26.4640939137,48.6938863457
32.4811262328,41.6463574421
5.5889125541,46.9719777720
7.4311030734,10.0521652598
31.3882035413,47.0292357619
5.0318441997,46.1263477412
1.0442540878,3.9776806334
30.2448384764,46.3354561068
36.6490668117,47.9867791877
-2.8620164181,43.0530526751
3.8181240774,16.1534207973
0.6978616111,-0.0639612437
36.4685841937,46.3124033525
35.2701438653,43.5529492839
35.1311821946,45.5364878637
32.3851959892,48.3446847222
29.8730831908,42.0758117980
38.6554121763,47.2180583145
5.4785522425,4.9329956734
29.5502996771,46.5345630844
-2.5974046650,47.0687790974
34.7428776544,54.6333552030
32.2893629198,43.7924744856
1.9297000945,51.6669051500
-2.0576195160,50.5299564316
35.5602397787,47.9091732946
29.4988576855,46.4747838628
30.5439027737,52.3986246483
28.5892582576,50.1876527526
6.4285933815,2.0055065078
8.6897270073,2.9998722717
34.6635697350,49.7981356979
3.0310082870,49.5447759110
4.2707192986,0.3665851291
8.2859667445,2.9699358057
32.1725521522,46.6817490272
-5.6290545510,2.5228843249
-0.0001457005,0.9307257918
0.4460291137,46.7134333101
31.9636935007,44.5564951341
32.0904522890,39.3334391036
6.9770270256,4.6774446970
29.5903293751,42.5459178136
1.6681078375,3.4097058515
35.1120794496,49.2906638852
35.0892985436,49.6026529369
8.7635196763,4.5925732276
34.5167989779,43.1461879549
36.7978726426,47.4367157783
31.6396595472,43.9043813410
1.2349270999,5.3432237779
31.9083706833,53.1337453787
31.4548593609,43.6651867855
30.9308536650,35.2424765052
29.7139485622,44.8402317850
28.1518287353,47.4208743403
1.0527794278,7.4935226951
5.8688374681,4.0707177165
-1.6803132957,9.5687163711
26.3460059104,46.0197595250
31.5788519498,46.4943161482
7.0959130811,7.9466694068
34.7697579209,44.1277475662
-3.8198445259,49.6166444023
32.2565966507,43.9379755326
30.5889124569,48.9478121188
39.3387039957,42.2076256180
1.3245789730,1.7890769945
0.1909204804,7.0601939730
26.0394085820,40.9464780030
30.4238426327,49.5066837086
26.6694149992,50.8463431645
29.9938005203,48.0995250097
35.0007372007,49.0575429520
12.6851753143,11.8357844208
28.0788426525,47.2575751716
7.1192782666,7.9399246127
31.0470254681,42.9288989478
2.7037043594,5.6348885112
2.1394856486,3.9525693251
7.0859612086,7.8748678924
32.8125107968,45.7592435122
8.0949241144,51.5335609381
31.7393739979,46.0841149249
29.5517194939,53.7868608547
31.8585510862,46.0149435924
-0.5161091374,7.6152830051
32.4941838948,46.2934322902
31.0069461316,45.8173055481
27.3953005795,45.9502982743
28.0809870393,52.6138480245
33.0844929954,52.1604210350
29.2624908154,50.2584532628
3.3418083743,9.6871898661
3.9380341314,0.8166267291
29.3897891880,43.7231376769
4.6333694316,3.1537175030
26.9763486987,46.4321727806
27.7240547142,49.1494917662
2.8666804694,52.3655061267
4.5547493260,3.2902570445
32.9312965141,43.5569879684
6.3362711939,7.6431434331
4.4667602820,10.4699949569
-0.9608060925,8.7453436670
30.8462153945,51.9324716518
7.0215667020,51.8839526966
2.2375294950,3.9668801719
29.7265694877,48.3957971042
9.8982156582,6.4209569260
-1.9515718916,49.8240359167
32.2136295724,44.4738280492
30.0730352143,44.2234237664
32.0647023373,46.2070860233
31.4051292261,43.8149020844
7.4510579153,9.0525209091
34.2861579478,45.9272668997
33.1927609987,46.5858920148
1.8502456790,4.6446000151
31.7247521111,42.9196720786
13.4023382801,10.7433431779
5.6367867715,11.0539257933
12.2437746747,10.3678441902
31.4911996647,43.6521120624
31.4011605423,47.8867016918
3.4338566093,-0.2111168022
31.2747312219,42.2622876695
3.8384372956,10.1406162232
5.0792222267,7.8034378417
29.2347686405,41.9962765771
7.5396249637,7.8582109172
9.6453954695,12.4508059957
-0.6912295997,46.2951382868
34.9085352271,43.9899276016
1.1914429203,2.4227630238
33.1858822464,44.9631891579
2.7864539779,43.3817640224
5.5503822259,4.8780815740
30.1202495376,46.9368182070
29.4479976058,39.3362997185
30.9870960666,39.6108569591
33.6932725979,44.4533187984
33.7261714821,46.5399441495
6.7632453681,3.4948323768
30.6984033703,42.1393047189
11.9655580328,13.1198827725
12.9819226591,17.5485238685
4.5888153802,7.7410471757
31.0100893804,41.6089275198
38.6865425751,42.5470717621
34.5361524723,45.4931904263
35.9920288200,43.8206671800
4.4943593403,52.8220488415
27.6387166283,48.6162815495
6.8806720881,44.5049030724
36.5996374649,42.4994418666
-0.0110851444,46.8380617196
32.4123369787,44.2224779940
-2.5086278813,42.3535364842
24.9977509782,46.3579781984
36.3929188522,48.1788163620
9.4080845757,-4.0111408921
33.7587544616,48.0309644127
33.8432554223,46.0115857097
30.8923076749,42.3129670032
30.3058439391,46.6161965733
33.6948101787,50.9714343574
35.8381125466,47.1940561799
-0.0684864207,1.9273335352
30.5527904349,44.7385714526
33.4675413878,40.1390080436
27.2264406917,41.4743177368
32.8262538941,49.7738819354
30.2186610120,49.6942355374
28.6731603665,43.4351328413
35.1843063522,41.3117494834
30.1900944801,48.0788047827
-0.2855140465,0.8933719486
10.9779799996,8.4199517195
8.2143127275,7.5648125858
2.1996794938,6.1872511842
31.0991130499,52.8228901542
31.8191579101,43.1676094435
2.8809493645,3.6494025273
4.2835333715,8.1141661111
36.7413467977,43.9741650379
6.5070131070,4.7562935592
36.5836294044,44.1121650059
4.9755457236,5.0502234354
6.0214460773,9.3492438172
29.4491436856,43.8950142665
3.5264123309,6.9390269408
29.3832755284,44.0269862290
26.5668614342,46.3661682816
-2.3734346010,48.4114128700
36.1570750511,44.1057881381
32.0486629104,42.6452211900
31.1537739945,45.7250121787
10.1096438677,7.5682858962
34.6297179225,48.0119271459
1.9710533984,6.7362733686
29.8537230573,43.2163163214
30.0047986883,42.5582717790
-4.9120937306,45.9472997261
-0.1829222023,49.5235800152
30.7146275846,42.4879152873
32.1972946194,47.2686859517
3.7557480066,47.5641159962
-1.7124433812,51.1796889438
33.7366940726,50.9598173814
29.9190114915,39.2699557250
-1.1137133837,0.4065741531
32.2845569950,42.4176663357
31.2898595723,44.9237222976
-2.1418910005,47.3915062752
4.5163880563,9.3300217078
11.6300153713,6.0920456189
30.2501164375,53.4229475502
36.2289931610,49.3456643699
32.6959084815,42.0924950448
2.8752058019,6.6339889965
32.5290233251,44.7555974316
32.5046250864,42.0226846688
6.5769759817,8.4987176796
5.0618321678,1.5478931772
4.6005629985,10.0938721451
30.3542094925,44.2577754616
25.4027803624,44.5949008603
2.1802600570,46.5842168431
35.0190782439,48.1232899852
30.6940620153,47.9960480145
30.4696967371,50.3325420679
0.2056649862,55.1451342714
32.6070698789,48.7797382427
35.0763685759,45.5969746196
6.9745064566,7.7483124593
3.3103327975,6.7776279951
23.5580218553,43.9798963045
1.1675115872,-0.5564233289
0.8285835254,44.7000444544
24.3222358362,49.1610293421
4.2154158263,7.6865558435
30.5710147610,49.1267749567
33.7294905704,43.5483648873
6.9369217841,6.4358349435
0.5155146482,3.9389629185
31.6602563433,46.1247481979
30.5830232011,47.4923750249
32.9738766005,45.3270375902
37.8150230679,50.2171739747
10.9836313744,13.3159898148
30.1777596464,46.5148827303
32.1793826829,42.4106592723
40.1212575654,48.5369823467
28.8168498886,47.1458596246
6.8585514016,8.1100135700
3.9217576425,51.3007935309
32.4517612214,44.0771394771
-4.7666487769,47.9274265720
31.1405720981,45.1949854340
8.4255008636,3.9010919646
2.8759405352,3.4591336064
4.5585407116,0.6856819734
0.8228108391,52.3831918165
33.7281371501,45.1826574587
4.5388323802,10.8311483191
5.6009622286,5.4641851968
11.2309146516,11.1859837685
30.4145403142,47.6555294955
0.5122750251,-1.3089921896
34.5236196860,48.7577917259
28.2943982600,45.6809121260
26.0712081802,44.3068697414
3.6478026062,49.4785347706
31.2480994341,48.6983626798
-3.7826953712,49.2010608397
9.0338108450,-0.5297683824
34.0401343754,44.0125907662
24.0035271767,51.4484708375
27.5520598138,42.4780791108
29.5193741167,47.5446562853
32.4730136399,46.3196596605
4.1298625818,9.3735681124
29.9733514954,50.7823411795
5.9019553863,8.5910539324
31.4439807923,47.6081098323
30.3731321802,47.8329238949
35.7731084928,47.2712875412
5.0516627453,45.6295694898
33.4040879779,46.5431934304
-0.2371718386,6.2705470012
4.2029070291,-1.4241945292
33.3820090801,45.0717834308
5.1216656561,14.1523553232
12.7577101183,1.5440672082
35.0062937987,46.7916159001
27.1241007833,42.2410355105
23.2385033787,49.1700711819
30.6690554741,48.0694488462
28.0677187223,44.2188575454
37.8111951958,43.1221059243
32.3647189385,45.3850959560
9.4199614489,2.4604670955
1.0802273831,51.6927329745
32.7704254086,47.5264912221
31.1666906456,49.3179472805
4.6960677885,2.5917783771
30.9814483974,42.1937282750
35.1250112445,48.6290294165
37.1314461794,40.7150309992
31.3098960346,45.6994351145
4.7508389912,4.4318678028
5.5283027158,8.5137838601
8.1671850964,3.0942747502
33.2888184752,47.3894089288
29.7066872056,42.8727167529
28.1653275765,47.7846260008
-3.9870677812,49.4970310488
33.4941069283,45.1119554436
6.3993703164,3.0104744018
36.2624076449,40.0347134876
8.4319849655,10.3637497967
26.7257851298,48.8886110367
29.4785100535,43.2401935194
31.8644899057,51.5905895994
4.4330425381,7.6720057418
0.6998321405,50.2310492447
5.0849208488,0.9839926474
34.6308709596,47.0494485080
31.2070902005,47.0561100044
33.3408713352,44.4209134231
25.1639495939,47.0065607010
35.6366229633,44.9810147869
11.6946995637,13.5124889058
-1.9605479046,5.5631250770
10.9658440771,11.9662098360
11.0757289087,14.6774521438
-2.7050366799,3.1939738676
10.2599742068,44.0261883040
29.6532231987,44.2086548932
31.0815018330,43.2868172884
30.6357324914,40.8726471479
3.8800493900,5.8876761254
1.6767175314,-0.9419579564
30.7176321915,48.9132035361
29.1695474156,45.4858977316
0.8816422138,6.1480276617
30.3693607474,50.0857189059
31.7272500504,41.3918063764
5.5304780363,5.9959662341
31.8472994301,47.2288704727
34.3120163588,47.0439748343
3.7566429340,5.0071757439
28.5282295748,49.2318475372
37.8017307423,46.4251687686
2.4522807560,6.3563733871
12.4508482161,11.3468847437
36.0871035315,47.8527333073
27.8998077070,43.9082442363
35.2818924799,50.7413375645
31.5488347564,49.4579447636
30.6430974978,41.2220132310
33.3196905024,45.8528469734
41.0216516662,43.6816175154
0.0733988396,-0.9876919020
6.0984794750,-0.1103109632
9.2679161334,3.8988410593
1.3979553904,2.8777803134
3.8921302448,48.3967528927
31.0644793456,44.0556069581
0.9941272726,3.0990971895
34.0309858802,46.5988623537
28.1886501202,49.6089097491
35.7459609774,42.1713749137
2.2405665809,43.6984380126
-0.4145285266,3.1598682043
4.5945998787,-1.2250819960
10.3150684357,9.9565493182
37.5265884183,46.9370874519
30.7621782093,44.1320916912
5.8655063762,11.4997351464
-0.2052229244,9.5444191213
36.9772396184,43.4477668712
6.1130138509,1.9499817810
0.2103292781,6.6752094113
1.9145527129,-1.9218463181
36.0278986254,44.6064995745
30.8459303719,42.3143174824
0.0705445705,3.8847848199
32.5349737531,43.0030333056
-1.4523432043,8.5180049270
33.9990863140,46.1406501896
-1.4936672844,42.0256348467
0.1098699321,6.1224469887
35.1284532911,48.1941323928
1.0931334862,3.9614938201
28.5638152217,44.8047478119
39.9022141893,48.0851120073
1.3648264730,6.0623798125
30.3326762674,48.4070561484
28.3104566236,45.7390406670
33.1000328856,45.2086162509
30.1030403260,48.6412778253
30.2223798126,40.4183391606
3.1806714941,-2.3764977879
31.3171522883,44.8455667943
36.5889396478,47.1057806020
26.9844671897,41.7758548898
8.6414823926,8.7292535683
32.4885880435,51.5863699942
32.6038676735,43.2772729152
32.5726333601,48.2804705650
36.1134608695,48.2077118773
9.1223862100,18.1625097568
3.6774906095,3.4834915277
31.5375754512,48.3206699038
3.7692890854,2.9811239614
32.4628612211,49.2975191315
32.2746826572,44.0365247292
1.2512400367,52.6011292736
1.3217524192,46.3548405304
29.5181478557,46.7984294059
5.4933704116,8.0185153022
29.9173071740,41.6914513588
30.3796769404,46.3330713393
33.1491256181,47.2436024472
31.1833104228,42.3275516047
31.7908479242,42.3237051876
9.1294686455,3.4938727952
32.4006083961,49.0019699305
3.0827972045,2.8064935292
-0.6696039606,0.7268592203
31.0546826371,47.1684152765
28.3334280333,45.6610612893
32.4895950711,51.0041539408
36.3732635039,43.5239687643
1.3527097438,52.3853427446
29.9415320322,48.8601803168
4.2825257243,2.1278577299
33.0027059894,46.5098034285
0.9293992779,48.5915304802
9.7961938599,9.8103905169
30.1157702397,45.9363259611
33.8653444292,47.1681124446
30.2835448355,47.2668913284
8.3476730429,10.0430587027
36.3043517381,44.5849311296
33.5354870815,44.7711907991
4.0446024067,12.6537611655
29.6575828514,46.2482528819
33.1726368250,43.6290512357
5.7432552425,50.2890456967
28.7445056521,47.0740832902
33.6374580970,48.9484844307
35.0401112210,43.4356503657
34.3915552530,46.2648985852
5.7310030860,45.0559845692
-1.5854086748,1.4804047021
30.8229808292,45.4295796622
36.9949899079,39.7800035871
7.8331215818,1.0451369974
10.6173309622,14.9133322494
28.8914915160,50.7503345130
29.5569359430,45.4430384191
28.0605232291,46.6673622619
-1.5869551217,42.7000372238
24.5575981085,50.1851619760
34.9040421015,44.4181110296
2.0916858020,44.1336625986
3.0386189570,3.3706917432
33.6175492089,46.6938439921
28.0871598624,50.2071493742
33.6824052788,43.8878343189
32.9532894804,43.8788957791
28.1069077457,42.3953841797
3.7042226240,-0.4257278975
30.7118987894,40.1767144366
34.1710654492,38.8907195967
-0.1526320362,1.2019031635
-1.9486912347,5.1004948838
3.5553934325,4.8486001992
30.9495573656,48.1458649570
34.7366833996,49.3170948778
-1.3257645158,44.9481398596
1.4019472121,2.1959376090
6.4525533788,8.5461523792
-0.2179724346,48.0747246062
29.4651477673,45.8224860147
33.4656900473,49.9287628954
7.8421875344,0.5052094895
-2.1228282773,46.0289160398
30.8692097901,44.7321735684
29.6307380743,50.1126064284
32.7949780017,42.0137236681
3.3381599178,50.7740121071
0.5564123904,5.2621982084
33.2604424812,42.2776792008
26.7628421942,43.9534726004
32.4501449657,42.6577369082
0.4143830276,3.2279144299
-3.7498543418,45.3657265631
3.5138077240,47.1445518727
26.4247376806,39.0750919917
29.6329895086,44.0653760193
3.0755835604,0.4706819847
5.3568479039,9.2186746358
4.8085767492,9.0845933883
32.6426798158,44.3997769391
26.8926907750,43.4546497628
3.4322980489,6.1760528264
38.1140965509,51.8304672813
-3.4770176694,-1.6849535063
28.7044432695,48.8427009132
34.9786430001,47.1629503146
28.6155886271,41.8890823095
36.5790585284,48.6637798940
28.5153973387,47.4798435462
1.3228226930,0.1799299023
0.5894691980,8.7477071421
31.3518094816,50.3374879673
32.2754377583,43.0881819734
6.0378730053,9.3691180416
12.0014115894,11.6772096657
30.9968273702,42.9759134496
4.1404154384,9.7467300821
34.3255080517,44.4854871608
1.3409937427,2.9513418323
30.9558789302,49.2499163760
24.5936077688,40.3819064616
1.8761573793,-1.0321820745
-0.7363662600,46.3921083331
27.6352043766,44.7108671808
32.8470781928,43.8367930575
-2.2311222744,2.0807384267
26.8522866689,44.0965239437
-1.5697999429,7.9254996272
3.0180008257,49.8028691517
7.8187327066,6.2454779159
4.7663217746,3.0622509441
30.8702675090,52.1504756302
-0.1153690670,7.9844995277
8.2247700485,12.8704122380
32.5506780823,47.7225721146
6.2423613226,3.8828208487
-2.8883669774,2.3120538365
1.5830248758,16.5066292392
-2.1063075658,7.4428459122
2.7359931794,41.0792872507
33.1911098575,47.1564889846
37.3769390958,44.7991635423
25.9759729020,51.5289977233
37.9743931000,48.0754808791
10.5604122996,13.0034209969
27.7853399897,50.0941369382
1.7821255764,4.4253750889
4.7984943526,3.6852188244
28.1675772340,47.2160067171
4.2925151431,1.1305490882
0.8057710022,3.1338414250
27.1782276351,50.4361277797
31.2060299490,46.0415492194
27.9386939866,45.5973500954
34.7883407510,42.8622887709
-0.5261600247,4.9210726119
33.7880131639,51.3184785735
33.8032454730,45.7671178565
34.7308647809,47.4215991323
36.8175953751,43.1239109348
6.4512372691,5.9122492138
6.6821105241,10.2109536036
7.6750875599,6.7832782300
0.7866169963,50.7473544362
4.4987557044,52.0729870397
31.0021733936,48.8012295483
32.1607683494,49.4086371457
8.4042548637,13.4132729489
33.7856077944,47.6238999179
30.7871666074,43.3913936366
5.4620520466,2.1533523144
34.1441078604,52.3169609674
-1.3852070238,49.5865397155
4.2551552493,2.6764508632
7.9992523415,5.8862584178
3.6010407511,45.7664371151
37.7818352124,42.9717968461
25.8532953913,42.0304005640
39.3856907605,45.2101331730
34.6615827140,49.3580759143
30.9936250869,46.3165844044
5.8312347256,3.5231824384
32.7634491800,49.7270934093
29.4710595668,48.2926628343
1.4989652280,42.6152767672
6.5719950910,12.4718390303
1.6551371158,47.2050489302
3.9352467967,7.1587900631
37.3407316533,47.2135769967
32.0650358173,50.4702953067
32.4594641878,44.5969518124
3.1398443339,45.0670305322
